{
  "package_name": "My Module",
  "package_version": "0.1.0",
  "package_slug": "{{ cookiecutter.package_name.lower().replace(' ', '_').replace('-', '_') }}",
  "package_description": "Python package for {{ cookiecutter.package_name }}",
  "package_namespace": "Foo",
  "package_deps": "e.g foo,bar>=3.0",
  "author_name": "Parag M.",
  "author_email": "user@example.com",
  "python_version": "3.8.9",
  "code_style": ["flake8", "pycodestyle"],
  "code_formatter": ["flake8"],
  "is_aws_lambda": ["no", "yes"],
  "include_custom_utils": ["no", "yes"],
  "entry_point": ["none", "cli", "gui"],
  "build_script": ["Makefile", "build.sh"],
  "dist_packager": ["setuptools", "compileall"],
  "sentry_dsn": "",
  "license": ["MIT", "BSD-3", "GNU GPL v3.0", "Apache 2.0", "Mozilla 2.0"],
  "git_provider": ["none", "gitlab", "github"],
  "git_user_or_group_name": ""
}
